{
    "/js/app.js": "/js/app.js",
    "/js/app2.js": "/js/app2.js",
    "/css/plantilla.css": "/css/plantilla.css",
    "/js/plantilla.js": "/js/plantilla.js",
    "/css/pagina.css": "/css/pagina.css",
    "/js/pagina.js": "/js/pagina.js"
}
